Coalition analysis (KOALA) 2017
…
```r
surveys %>%
	unnest() %>%
	select(-start, -end)
```

```
## # A tibble: 1,080 x 4
##    pollster   date       respondents survey          
##    <chr>      <date>           <dbl> <list>          
##  1 allensbach 2018-01-25        1221 <tibble [7 × 3]>
##  2 allensbach 2017-12-21        1443 <tibble [7 × 3]>
##  3 allensbach 2017-11-30        1299 <tibble [7 × 3]>
##  4 allensbach 2017-10-25        1454 <tibble [7 × 3]>
##  5 allensbach 2017-09-22        1074 <tibble [7 × 3]>
##  6 allensbach 2017-09-19        1083 <tibble [7 × 3]>
##  7 allensbach 2017-09-06        1043 <tibble [7 × 3]>
##  8 allensbach 2017-08-22        1421 <tibble [7 × 3]>
##  9 allensbach 2017-07-18        1403 <tibble [7 × 3]>
## 10 allensbach 2017-06-20        1437 <tibble [7 × 3]>
## # ... with 1,070 more rows
```
…
---
background-color: whitesmoke
background-image: url("image/Koala_Logo_Schrift.png")
background-position: 97% 2%
background-size: 150px
### Redistribution and seats calculation
<hr style='border:solid gray 1px; height:0px; margin-top:-20px; margin-bottom:25px'/>

```r
seats <- get_seats(draws, pooled_survey, distrib.fun=sls, hurdle=0.05)
seats
```

```
## # A tibble: 60,000 x 3
##      sim party  seats
##    <int> <chr>  <int>
##  1     1 afd       84
##  2     1 cdu      204
##  3     1 fdp       53
##  4     1 greens    79
##  5     1 left      73
##  6     1 spd      105
##  7     2 afd       78
##  8     2 cdu      201
##  9     2 fdp       59
## 10     2 greens    78
## # ... with 59,990 more rows
```
…
